<?xml version="1.0" encoding="UTF-8" standalone="no"?>
<svg
   xmlns:dc="http://purl.org/dc/elements/1.1/"
   xmlns:cc="http://creativecommons.org/ns#"
   xmlns:rdf="http://www.w3.org/1999/02/22-rdf-syntax-ns#"
   xmlns:svg="http://www.w3.org/2000/svg"
   xmlns="http://www.w3.org/2000/svg"
   version="1.1"
   id="svg2"
   viewBox="0 0 40.366867 6.0180719"
   height="6.0180717"
   width="60.366867">
  <defs
     id="defs4" />
  <metadata
     id="metadata7">
    <rdf:RDF>
      <cc:Work
         rdf:about="">
        <dc:format>image/svg+xml</dc:format>
        <dc:type
           rdf:resource="http://purl.org/dc/dcmitype/StillImage" />
        <dc:title></dc:title>
      </cc:Work>
    </rdf:RDF>
  </metadata>
  <g
     id="main_obj"
     transform="matrix(0.59866473,0,0,0.51613844,2.4188967e-6,2.2621514e-6)">


    <path
        fixed_reset="m 8.0370763e-4,0.01170167 0,0.1056154 0.38131700237,0 -0.0023,-0.1053259 c -0.159536,-0.0012 -0.271268,0.00162 -0.37909600237,-2.947e-4 z"
        elastic_back="m 0.051393,0.0793 c 1.5407223,3.8241667 1.3351965,7.6483333 0,11.4725 l 14.288022,0 C 12.721326,7.7381333 13.003793,3.9244667 14.256245,0.1108 8.278369,-0.0182 4.091731,0.2863 0.051398,0.0788 Z"
        elastic_pos="m 0.051393,0.0793 c -1.7179644,3.8241667 -1.8724059,7.6483333 0,11.4725 l 14.288022,0 C 15.615134,7.7381333 15.113095,3.9244667 14.256245,0.1108 8.278369,-0.0182 4.091731,0.2863 0.051398,0.0788 Z"
        d="m 8.0370763e-4,0.01170167 0,0.1056154 0.38131700237,0 -0.0023,-0.1053259 c -0.159536,-0.0012 -0.271268,0.00162 -0.37909600237,-2.947e-4 z"
       id="date"
      normal="m 0.051393,0.0793 0,11.4725 14.288022,0 -0.08317,-11.441 C 8.278369,-0.0182 4.091731,0.2863 0.051398,0.0788 Z"
       style="fill:#fffffc;fill-opacity:0.97297297;fill-rule:evenodd;stroke:#69a5db;stroke-width:0.10279408;stroke-linecap:butt;stroke-linejoin:miter;stroke-miterlimit:4;stroke-dasharray:none;stroke-opacity:1" />
    <path
        fixed_reset="m 10.416331,0.00755867 0,0.1019412 0.329365,0 -0.0051,-0.1016616 c -0.1378,-0.00115 -0.231131,0.00157 -0.324268,-2.849e-4 z"
        elastic_back="m 17.72083,0.0546 c 1.887334,3.8241667 1.949659,7.6483333 0,11.4725 l 14.288022,0 C 29.589446,7.7134333 30.694108,3.8997667 31.787847,0.0861 25.809971,-0.0429 21.761163,0.2616 17.72083,0.0541 Z"
         elastic_pos="m 17.72083,0.0546 c -1.23392,3.8241667 -1.628457,7.6483333 0,11.4725 l 14.288022,0 C 33.482864,7.7134333 32.929346,3.8997667 31.787847,0.0861 25.809971,-0.0429 21.761163,0.2616 17.72083,0.0541 Z"
        d="m 10.416331,0.00755867 0,0.1019412 0.329365,0 -0.0051,-0.1016616 c -0.1378,-0.00115 -0.231131,0.00157 -0.324268,-2.849e-4 z"
       id="popular"
        normal="m 17.72083,0.0546 0,11.4725 14.288022,0 -0.221005,-11.441 C 25.809971,-0.0429 21.761163,0.2616 17.72083,0.0541 Z"
       style="fill:#fffffc;fill-opacity:0.97297297;fill-rule:evenodd;stroke:#69a5db;stroke-width:0.10279408;stroke-linecap:butt;stroke-linejoin:miter;stroke-miterlimit:4;stroke-dasharray:none;stroke-opacity:1" />
    <path
       fixed_reset="m 21.212487,0.01274997 0,0.1019406 0.329365,0 -0.0051,-0.1016611 c -0.1378,-0.00115 -0.231132,0.00157 -0.324269,-2.842e-4 z"
        elastic_back="m 35.41842,0.1359 c 1.496653,3.8241667 1.381269,7.6483333 0,11.4725 l 14.288022,0 C 47.57934,8.0243359 48.255365,4.2836775 49.485437,0.1465 43.507561,0.0175 39.458753,0.3429 35.41842,0.1355 Z"
        elastic_pos="m 35.41842,0.1359 c -1.082783,3.8241667 -1.307722,7.6483333 0,11.4725 l 14.288022,0 C 50.958501,8.0243359 51.33301,4.2836775 49.485437,0.1465 43.507561,0.0175 39.458753,0.3429 35.41842,0.1355 Z"
       d="m 21.212487,0.01274997 0,0.1019406 0.329365,0 -0.0051,-0.1016611 c -0.1378,-0.00115 -0.231132,0.00157 -0.324269,-2.842e-4 z"
       id="date-4"
        normal="m 35.41842,0.1359 0,11.4725 14.288022,0 L 49.485437,0.1465 C 43.507561,0.0175 39.458753,0.3429 35.41842,0.1355 Z"
       style="fill:#fffffc;fill-opacity:0.97297297;fill-rule:evenodd;stroke:#69a5db;stroke-width:0.10279408;stroke-linecap:butt;stroke-linejoin:miter;stroke-miterlimit:4;stroke-dasharray:none;stroke-opacity:1" />
    <path
         fixed_reset="m 32.010531,7.5037168e-4 0,0.10194109832 0.329364,0 -0.0051,-0.1016615 c -0.137799,-0.001149998 -0.23113,0.00157 -0.324268,-2.7799832e-4 z"
        elastic_back="m 53.087858,0.11127182 c 1.228681,3.98734698 1.194603,7.76094748 0,11.47250018 l 14.288023,0 C 65.553175,5.9922441 66.835605,3.9425202 67.179241,0.12189437 c -5.977876,-0.129 -10.05105,0.19637745 -14.091383,-0.0106226 z"
        elastic_pos="m 53.087858,0.11127182 c -1.541728,3.98734698 -1.781356,7.76094748 0,11.47250018 l 14.288023,0 c 1.703134,-3.8206259 1.927558,-7.6412518 -0.19664,-11.46187763 -5.977876,-0.129 -10.05105,0.19637745 -14.091383,-0.0106226 z"
        d="m 32.010531,7.5037168e-4 0,0.10194109832 0.329364,0 -0.0051,-0.1016615 c -0.137799,-0.001149998 -0.23113,0.00157 -0.324268,-2.7799832e-4 z"
       style="fill:#fffffc;fill-opacity:0.97297297;fill-rule:evenodd;stroke:#69a5db;stroke-width:0.10279408;stroke-linecap:butt;stroke-linejoin:miter;stroke-miterlimit:4;stroke-dasharray:none;stroke-opacity:1"
        normal="m 53.087858,0.11127182 0,11.47250018 14.288023,0 -0.19664,-11.46187763 c -5.977876,-0.129 -10.05105,0.19637745 -14.091383,-0.0106226 z"
       id="city" />
    

       
  </g>
</svg>
