<?xml version="1.0" encoding="UTF-8" standalone="no"?>
<!-- Created with Inkscape (http://www.inkscape.org/) -->

<svg
   xmlns:osb="http://www.openswatchbook.org/uri/2009/osb"
   xmlns:dc="http://purl.org/dc/elements/1.1/"
   xmlns:cc="http://creativecommons.org/ns#"
   xmlns:rdf="http://www.w3.org/1999/02/22-rdf-syntax-ns#"
   xmlns:svg="http://www.w3.org/2000/svg"
   xmlns="http://www.w3.org/2000/svg"
   xmlns:xlink="http://www.w3.org/1999/xlink"
   xmlns:sodipodi="http://sodipodi.sourceforge.net/DTD/sodipodi-0.dtd"
   xmlns:inkscape="http://www.inkscape.org/namespaces/inkscape"
   width="200"
   height="140"
   viewBox="0 0 1075.3863 1317.5672"
   id="svg2"
   version="1.1"
   onmouseover="startanim(2300,1500,this)"
   inkscape:version="0.48.4 r9939"
   sodipodi:docname="personal_exit.svg">
  <sodipodi:namedview
     pagecolor="#ffffff"
     bordercolor="#666666"
     borderopacity="1"
     objecttolerance="10"
     gridtolerance="10"
     guidetolerance="10"
     inkscape:pageopacity="0"
     inkscape:pageshadow="2"
     inkscape:window-width="1920"
     inkscape:window-height="1017"
     id="namedview3031"
     showgrid="false"
     showborder="true"
     showguides="true"
     inkscape:guide-bbox="true"
     inkscape:zoom="2.1689301"
     inkscape:cx="21.184087"
     inkscape:cy="-5.2436495"
     inkscape:window-x="-8"
     inkscape:window-y="-8"
     inkscape:window-maximized="1"
     inkscape:current-layer="grouop_id">
    <sodipodi:guide
       orientation="0,1"
       position="27.059361,96.82687"
       id="guide3035" />
    <sodipodi:guide
       orientation="0,1"
       position="29.015459,-8.15041"
       id="guide3037" />
    <sodipodi:guide
       orientation="1,0"
       position="-25.103263,103.02118"
       id="guide3039" />
    <sodipodi:guide
       orientation="1,0"
       position="113.77972,52.48864"
       id="guide3041" />
    <sodipodi:guide
       orientation="1,0"
       position="3.9121968,67.811411"
       id="guide3043" />
    <sodipodi:guide
       orientation="1,0"
       position="82.808165,34.557738"
       id="guide3045" />
    <sodipodi:guide
       orientation="0,1"
       position="22.130727,110.65363"
       id="guide3837" />
  </sodipodi:namedview>
  <defs
     id="defs4">
    <linearGradient
       id="linearGradient5357"
       osb:paint="solid">
      <stop
         style="stop-color:#d03500;stop-opacity:1;"
         offset="0"
         id="stop5359" />
    </linearGradient>
    <script
       id="script3011">
           
           function anim_obj_new(to,duration,svg_elem_id){
           var group_id=document.getElementById('path3355');
           var arr=['orange','green','red','blue'];
 change_grad(svg_elem_id);
	
	var duration=duration;
	
	
	var start=new Date().getTime()	
        var i=0;
	setTimeout(function(){

		var now=new Date().getTime()-start;
		var progress=now/duration;
		var result=Math.floor(to*progress);
			
		


		svg_elem_id.setAttribute('stroke-dasharray',result+' '+ to);
              group_id.setAttribute('fill','red');
		
			

				
			if(progress&lt;1){

			setTimeout(arguments.callee);

		}		
		
		},10);

	}
        
        
      
        function startanim(to,from,par){
    
               anim_obj_new(to,from,par);
           } 
         function change_grad(par){par.setAttribute('fill','url(#&quot;my_gradient')};
            </script>
    <linearGradient
       id="my_gradient"
       gradientTransform="matrix(1.0204761,0,0,0.97993477,-3.6e-6,0)"
       x1="-11.563586"
       y1="129.25102"
       x2="713.91809"
       y2="129.25102"
       gradientUnits="userSpaceOnUse">
      <stop
         offset="25%"
         stop-color="#C18F96"
         id="stop3014" />
      <stop
         offset="45%"
         stop-color="#9EB22C"
         id="stop3016" />
      <stop
         offset="75%"
         stop-color="#D1405D"
         id="stop3018" />
    </linearGradient>
    <linearGradient
       id="my_door_gradient"
       gradientTransform="scale(0.84752782,1.1799023)"
       x1="263.33636"
       y1="254.07965"
       x2="572.80786"
       y2="254.07965"
       gradientUnits="userSpaceOnUse">
      <stop
         offset="15%"
         stop-color="#E6ED1A"
         id="stop3021" />
      <stop
         offset="75%"
         stop-color="#585B45"
         id="stop3023" />
    </linearGradient>
    <linearGradient
       inkscape:collect="always"
       xlink:href="#linearGradient5357-0"
       id="linearGradient5361-6"
       x1="347.09674"
       y1="112.8165"
       x2="655.45343"
       y2="112.8165"
       gradientUnits="userSpaceOnUse" />
    <linearGradient
       id="linearGradient5357-0"
       osb:paint="solid">
      <stop
         style="stop-color:#619400;stop-opacity:1;"
         offset="0"
         id="stop5359-4" />
    </linearGradient>
  </defs>
  <metadata
     id="metadata7">
    <rdf:RDF>
      <cc:Work
         rdf:about="">
        <dc:format>image/svg+xml</dc:format>
        <dc:type
           rdf:resource="http://purl.org/dc/dcmitype/StillImage" />
        <dc:title></dc:title>
      </cc:Work>
    </rdf:RDF>
  </metadata>
  <g
     inkscape:label="Layer 1"
     inkscape:groupmode="layer"
     id="grouop_id"
     transform="translate(0,417.20491)">
    <a
       id="a3344" />
    <path
       style="fill:none;stroke:#2a0000;stroke-width:8px;stroke-linecap:butt;stroke-linejoin:round;stroke-opacity:1"
       d="M -79.266981,248.81472 587.21213,-399.24767 1259.4367,236.09154 575.72111,858.80219 z"
       id="path3355"
       inkscape:connector-curvature="0"
       sodipodi:nodetypes="ccccc" />
    <rect
       style="fill:#dd382f;fill-opacity:0.83636361;stroke:#e60011;stroke-width:9.41119385;stroke-linecap:round;stroke-linejoin:miter;stroke-miterlimit:4;stroke-opacity:0.05909089;stroke-dasharray:225.86865821, 9.4111941;stroke-dashoffset:0"
       id="rect5468"
       width="465.00024"
       height="586.32062"
       x="339.42896"
       y="-61.092934" />
    <path
       style="fill:#f0f0f0;fill-opacity:1;stroke:#000000;stroke-width:3.76447773;stroke-linecap:butt;stroke-linejoin:miter;stroke-miterlimit:4;stroke-opacity:1;stroke-dasharray:none"
       d="m 798.84147,125.33207 -185.31769,3.88291 2.10737,336.10508 187.09212,-3.54981"
       id="path5472"
       inkscape:connector-curvature="0"
       sodipodi:nodetypes="cccc" />
    <path
       style="fill:#3670c4;fill-opacity:0.83636361;stroke:#000000;stroke-width:9.41119385px;stroke-linecap:butt;stroke-linejoin:miter;stroke-opacity:1"
       d="m 664.13721,265.16505 202.46546,-4.52973 0.4318,-41.7442 102.8587,53.75145 -101.0846,68.81275 -2.8196,-50.23851 -204.08337,3.59162 z"
       id="path5470"
       inkscape:connector-curvature="0"
       sodipodi:nodetypes="cccccccc" />
  </g>
</svg>
